{
  "count": 200,
  "next": "https:\/\/cryptopanic.com\/api\/v1\/posts\/?auth_token=ad15ecca83498d46e8e9e34dd2f18a2ba1320bc4&public=true&page=2",
  "previous": null,
  "results": [
    {
      "kind": "news",
      "domain": "protos.com",
      "source": {
        "title": "Protos.com",
        "region": "en",
        "domain": "protos.com",
        "path": null
      },
      "title": "Disgruntled BlockFi users push class-action after record SEC settlement",
      "published_at": "2022-03-02T19:58:45Z",
      "slug": "Disgruntled-BlockFi-users-push-class-action-after-record-SEC-settlement",
      "id": 14454129,
      "url": "https:\/\/cryptopanic.com\/news\/14454129\/Disgruntled-BlockFi-users-push-class-action-after-record-SEC-settlement",
      "created_at": "2022-03-02T19:58:45Z",
      "votes": {
        "negative": 0,
        "positive": 0,
        "important": 0,
        "liked": 0,
        "disliked": 0,
        "lol": 0,
        "toxic": 0,
        "saved": 0,
        "comments": 0
      }
    },
    {
      "kind": "news",
      "domain": "blockworks.co",
      "source": {
        "title": "Blockworks",
        "region": "en",
        "domain": "blockworks.co",
        "path": null
      },
      "title": "Crypto Company ConsenSys Under Fire From Shareholders Demanding Audit",
      "published_at": "2022-03-02T19:51:59Z",
      "slug": "Crypto-Company-ConsenSys-Under-Fire-From-Shareholders-Demanding-Audit",
      "currencies": [
        {
          "code": "ETH",
          "title": "Ethereum",
          "slug": "ethereum",
          "url": "https:\/\/cryptopanic.com\/news\/ethereum\/"
        }
      ],
      "id": 14454117,
      "url": "https:\/\/cryptopanic.com\/news\/14454117\/Crypto-Company-ConsenSys-Under-Fire-From-Shareholders-Demanding-Audit",
      "created_at": "2022-03-02T19:51:59Z",
      "votes": {
        "negative": 0,
        "positive": 0,
        "important": 0,
        "liked": 0,
        "disliked": 0,
        "lol": 0,
        "toxic": 0,
        "saved": 0,
        "comments": 0
      }
    },
    {
      "kind": "news",
      "domain": "beincrypto.com",
      "votes": {
        "negative": 0,
        "positive": 1,
        "important": 1,
        "liked": 1,
        "disliked": 0,
        "lol": 0,
        "toxic": 0,
        "saved": 0,
        "comments": 0
      },
      "source": {
        "title": "BeInCrypto",
        "region": "en",
        "domain": "beincrypto.com",
        "path": null
      },
      "title": "Waves (WAVES) Increases by 140% in Only Eight Days",
      "published_at": "2022-03-02T19:45:00Z",
      "slug": "Waves-WAVES-Increases-by-140-in-Only-Eight-Days",
      "id": 14454103,
      "url": "https:\/\/cryptopanic.com\/news\/14454103\/Waves-WAVES-Increases-by-140-in-Only-Eight-Days",
      "created_at": "2022-03-02T19:45:00Z"
    },
    {
      "kind": "media",
      "domain": "youtube.com",
      "votes": {
        "negative": 0,
        "positive": 1,
        "important": 1,
        "liked": 0,
        "disliked": 0,
        "lol": 0,
        "toxic": 0,
        "saved": 0,
        "comments": 0
      },
      "source": {
        "title": "Ian Balina",
        "region": "en",
        "domain": "youtube.com",
        "path": null
      },
      "title": "Altcoins to Watch on a Dip! Who will take the lead? | Market Update Live",
      "published_at": "2022-03-02T19:29:15Z",
      "slug": "Altcoins-to-Watch-on-a-Dip-Who-will-take-the-lead-Market-Update-Live",
      "id": 14453844,
      "url": "https:\/\/cryptopanic.com\/news\/14453844\/Altcoins-to-Watch-on-a-Dip-Who-will-take-the-lead-Market-Update-Live",
      "created_at": "2022-03-02T19:29:15Z"
    },
    {
      "kind": "news",
      "domain": "cointelegraph.com",
      "votes": {
        "negative": 0,
        "positive": 1,
        "important": 0,
        "liked": 0,
        "disliked": 0,
        "lol": 0,
        "toxic": 0,
        "saved": 0,
        "comments": 0
      },
      "source": {
        "title": "CoinTelegraph",
        "region": "en",
        "domain": "cointelegraph.com",
        "path": null
      },
      "title": "Price analysis 3\/2: BTC, ETH, BNB, XRP, LUNA, SOL, ADA, AVAX, DOT, DOGE",
      "published_at": "2022-03-02T19:26:50Z",
      "slug": "Price-analysis-32-BTC-ETH-BNB-XRP-LUNA-SOL-ADA-AVAX-DOT-DOGE",
      "currencies": [
        {
          "code": "BTC",
          "title": "Bitcoin",
          "slug": "bitcoin",
          "url": "https:\/\/cryptopanic.com\/news\/bitcoin\/"
        },
        {
          "code": "ETH",
          "title": "Ethereum",
          "slug": "ethereum",
          "url": "https:\/\/cryptopanic.com\/news\/ethereum\/"
        },
        {
          "code": "XRP",
          "title": "XRP",
          "slug": "ripple",
          "url": "https:\/\/cryptopanic.com\/news\/ripple\/"
        },
        {
          "code": "LUNA",
          "title": "Terra",
          "slug": "terra-luna",
          "url": "https:\/\/cryptopanic.com\/news\/terra-luna\/"
        },
        {
          "code": "ADA",
          "title": "Cardano",
          "slug": "cardano",
          "url": "https:\/\/cryptopanic.com\/news\/cardano\/"
        },
        {
          "code": "AVAX",
          "title": "Avalanche",
          "slug": "avalanche-2",
          "url": "https:\/\/cryptopanic.com\/news\/avalanche-2\/"
        },
        {
          "code": "DOT",
          "title": "Polkadot",
          "slug": "polkadot",
          "url": "https:\/\/cryptopanic.com\/news\/polkadot\/"
        },
        {
          "code": "DOGE",
          "title": "Dogecoin",
          "slug": "dogecoin",
          "url": "https:\/\/cryptopanic.com\/news\/dogecoin\/"
        },
        {
          "code": "BNB",
          "title": "OEC Binance Coin",
          "slug": "oec-binance-coin",
          "url": "https:\/\/cryptopanic.com\/news\/oec-binance-coin\/"
        },
        {
          "code": "FLOW",
          "title": "Flower Solana",
          "slug": "flower-solana",
          "url": "https:\/\/cryptopanic.com\/news\/flower-solana\/"
        }
      ],
      "id": 14454075,
      "url": "https:\/\/cryptopanic.com\/news\/14454075\/Price-analysis-32-BTC-ETH-BNB-XRP-LUNA-SOL-ADA-AVAX-DOT-DOGE",
      "created_at": "2022-03-02T19:26:50Z"
    },
    {
      "kind": "news",
      "domain": "cointelegraph.com",
      "votes": {
        "negative": 0,
        "positive": 1,
        "important": 0,
        "liked": 0,
        "disliked": 0,
        "lol": 0,
        "toxic": 0,
        "saved": 0,
        "comments": 0
      },
      "source": {
        "title": "CoinTelegraph",
        "region": "en",
        "domain": "cointelegraph.com",
        "path": null
      },
      "title": "Radio Caca wants to \u2018return the Metaverse to people\u2019 by partnering with university students",
      "published_at": "2022-03-02T19:26:00Z",
      "slug": "Radio-Caca-wants-to-return-the-Metaverse-to-people-by-partnering-with-university-students",
      "id": 14454076,
      "url": "https:\/\/cryptopanic.com\/news\/14454076\/Radio-Caca-wants-to-return-the-Metaverse-to-people-by-partnering-with-university-students",
      "created_at": "2022-03-02T19:26:00Z"
    },
    {
      "kind": "media",
      "domain": "youtube.com",
      "source": {
        "title": "Bitcoin Magazine",
        "region": "en",
        "domain": "youtube.com",
        "path": null
      },
      "title": "Bitcoin vs Tyranny - Who Will Win?",
      "published_at": "2022-03-02T19:20:17Z",
      "slug": "Bitcoin-vs-Tyranny-Who-Will-Win",
      "currencies": [
        {
          "code": "BTC",
          "title": "Bitcoin",
          "slug": "bitcoin",
          "url": "https:\/\/cryptopanic.com\/news\/bitcoin\/"
        }
      ],
      "id": 14454104,
      "url": "https:\/\/cryptopanic.com\/news\/14454104\/Bitcoin-vs-Tyranny-Who-Will-Win",
      "created_at": "2022-03-02T19:20:17Z",
      "votes": {
        "negative": 0,
        "positive": 0,
        "important": 0,
        "liked": 0,
        "disliked": 0,
        "lol": 0,
        "toxic": 0,
        "saved": 0,
        "comments": 0
      }
    },
    {
      "kind": "news",
      "domain": "coindesk.com",
      "votes": {
        "negative": 1,
        "positive": 0,
        "important": 0,
        "liked": 0,
        "disliked": 1,
        "lol": 1,
        "toxic": 0,
        "saved": 0,
        "comments": 0
      },
      "source": {
        "title": "CoinDesk",
        "region": "en",
        "domain": "coindesk.com",
        "path": null
      },
      "title": "Polymer\u2019s $3.6M in Seed Funding Says IBC Is the Future of Crypto",
      "published_at": "2022-03-02T19:11:51Z",
      "slug": "Polymers-36M-in-Seed-Funding-Says-IBC-Is-the-Future-of-Crypto",
      "currencies": [
        {
          "code": "ETH",
          "title": "Ethereum",
          "slug": "ethereum",
          "url": "https:\/\/cryptopanic.com\/news\/ethereum\/"
        },
        {
          "code": "SOL",
          "title": "Solana",
          "slug": "solana",
          "url": "https:\/\/cryptopanic.com\/news\/solana\/"
        }
      ],
      "id": 14454023,
      "url": "https:\/\/cryptopanic.com\/news\/14454023\/Polymers-36M-in-Seed-Funding-Says-IBC-Is-the-Future-of-Crypto",
      "created_at": "2022-03-02T19:11:51Z"
    },
    {
      "kind": "news",
      "domain": "coindesk.com",
      "votes": {
        "negative": 0,
        "positive": 1,
        "important": 1,
        "liked": 1,
        "disliked": 0,
        "lol": 0,
        "toxic": 0,
        "saved": 1,
        "comments": 0
      },
      "source": {
        "title": "CoinDesk",
        "region": "en",
        "domain": "coindesk.com",
        "path": null
      },
      "title": "Bitcoiners Were Right: Weaponized Finance Just Created a Post-Dollar Planet",
      "published_at": "2022-03-02T19:10:01Z",
      "slug": "Bitcoiners-Were-Right-Weaponized-Finance-Just-Created-a-Post-Dollar-Planet",
      "id": 14454024,
      "url": "https:\/\/cryptopanic.com\/news\/14454024\/Bitcoiners-Were-Right-Weaponized-Finance-Just-Created-a-Post-Dollar-Planet",
      "created_at": "2022-03-02T19:10:01Z"
    },
    {
      "kind": "media",
      "domain": "youtube.com",
      "source": {
        "title": "Bitcoin Magazine",
        "region": "en",
        "domain": "youtube.com",
        "path": null
      },
      "title": "Drunk People React To Bitcoin - Street Interviews!",
      "published_at": "2022-03-02T19:05:54Z",
      "slug": "Drunk-People-React-To-Bitcoin-Street-Interviews",
      "currencies": [
        {
          "code": "BTC",
          "title": "Bitcoin",
          "slug": "bitcoin",
          "url": "https:\/\/cryptopanic.com\/news\/bitcoin\/"
        }
      ],
      "id": 14453991,
      "url": "https:\/\/cryptopanic.com\/news\/14453991\/Drunk-People-React-To-Bitcoin-Street-Interviews",
      "created_at": "2022-03-02T19:05:54Z",
      "votes": {
        "negative": 0,
        "positive": 0,
        "important": 0,
        "liked": 0,
        "disliked": 0,
        "lol": 0,
        "toxic": 0,
        "saved": 0,
        "comments": 0
      }
    },
    {
      "kind": "news",
      "domain": "dailyhodl.com",
      "votes": {
        "negative": 0,
        "positive": 1,
        "important": 1,
        "liked": 1,
        "disliked": 0,
        "lol": 0,
        "toxic": 0,
        "saved": 1,
        "comments": 0
      },
      "source": {
        "title": "The Daily Hodl",
        "region": "en",
        "domain": "dailyhodl.com",
        "path": null
      },
      "title": "Analyst Predicts Rallies for Terra (LUNA) and Two Altcoins, Warns Not To Expect Many Bitcoin Dips This Month",
      "published_at": "2022-03-02T19:05:23Z",
      "slug": "Analyst-Predicts-Rallies-for-Terra-LUNA-and-Two-Altcoins-Warns-Not-To-Expect-Many-Bitcoin-Dips-This-Month",
      "currencies": [
        {
          "code": "BTC",
          "title": "Bitcoin",
          "slug": "bitcoin",
          "url": "https:\/\/cryptopanic.com\/news\/bitcoin\/"
        },
        {
          "code": "LUNA",
          "title": "Terra",
          "slug": "luna-terra",
          "url": "https:\/\/cryptopanic.com\/news\/luna-terra\/"
        },
        {
          "code": "LUNA",
          "title": "Terra",
          "slug": "terra-luna",
          "url": "https:\/\/cryptopanic.com\/news\/terra-luna\/"
        }
      ],
      "id": 14454029,
      "url": "https:\/\/cryptopanic.com\/news\/14454029\/Analyst-Predicts-Rallies-for-Terra-LUNA-and-Two-Altcoins-Warns-Not-To-Expect-Many-Bitcoin-Dips-This-Month",
      "created_at": "2022-03-02T19:05:23Z"
    },
    {
      "kind": "news",
      "domain": "coindesk.com",
      "votes": {
        "negative": 1,
        "positive": 0,
        "important": 1,
        "liked": 0,
        "disliked": 1,
        "lol": 1,
        "toxic": 0,
        "saved": 0,
        "comments": 0
      },
      "source": {
        "title": "CoinDesk",
        "region": "en",
        "domain": "coindesk.com",
        "path": null
      },
      "title": "Lawmakers Raise Alarm on Crypto for Sanctions Evasion as Experts Cast Doubt",
      "published_at": "2022-03-02T19:01:13Z",
      "slug": "Lawmakers-Raise-Alarm-on-Crypto-for-Sanctions-Evasion-as-Experts-Cast-Doubt",
      "id": 14453993,
      "url": "https:\/\/cryptopanic.com\/news\/14453993\/Lawmakers-Raise-Alarm-on-Crypto-for-Sanctions-Evasion-as-Experts-Cast-Doubt",
      "created_at": "2022-03-02T19:01:13Z"
    },
    {
      "kind": "media",
      "domain": "youtube.com",
      "votes": {
        "negative": 0,
        "positive": 0,
        "important": 0,
        "liked": 0,
        "disliked": 0,
        "lol": 0,
        "toxic": 0,
        "saved": 0,
        "comments": 2
      },
      "source": {
        "title": "Bitcoin Magazine",
        "region": "en",
        "domain": "youtube.com",
        "path": null
      },
      "title": "Watch This To UNDERSTAND Bitcoin & Energy",
      "published_at": "2022-03-02T19:00:57Z",
      "slug": "Watch-This-To-UNDERSTAND-Bitcoin-Energy",
      "currencies": [
        {
          "code": "BTC",
          "title": "Bitcoin",
          "slug": "bitcoin",
          "url": "https:\/\/cryptopanic.com\/news\/bitcoin\/"
        }
      ],
      "id": 14453216,
      "url": "https:\/\/cryptopanic.com\/news\/14453216\/Watch-This-To-UNDERSTAND-Bitcoin-Energy",
      "created_at": "2022-03-02T19:00:57Z"
    },
    {
      "kind": "news",
      "domain": "bitcoinist.com",
      "source": {
        "title": "Bitcoinist",
        "region": "en",
        "domain": "bitcoinist.com",
        "path": null
      },
      "title": "War Driven Bitcoin Price Action Leads To Largest Volume Since 2021",
      "published_at": "2022-03-02T19:00:56Z",
      "slug": "War-Driven-Bitcoin-Price-Action-Leads-To-Largest-Volume-Since-2021",
      "currencies": [
        {
          "code": "BTC",
          "title": "Bitcoin",
          "slug": "bitcoin",
          "url": "https:\/\/cryptopanic.com\/news\/bitcoin\/"
        }
      ],
      "id": 14453992,
      "url": "https:\/\/cryptopanic.com\/news\/14453992\/War-Driven-Bitcoin-Price-Action-Leads-To-Largest-Volume-Since-2021",
      "created_at": "2022-03-02T19:00:56Z",
      "votes": {
        "negative": 0,
        "positive": 0,
        "important": 0,
        "liked": 0,
        "disliked": 0,
        "lol": 0,
        "toxic": 0,
        "saved": 0,
        "comments": 0
      }
    },
    {
      "kind": "news",
      "domain": "cryptoslate.com",
      "votes": {
        "negative": 0,
        "positive": 1,
        "important": 1,
        "liked": 1,
        "disliked": 0,
        "lol": 0,
        "toxic": 0,
        "saved": 1,
        "comments": 0
      },
      "source": {
        "title": "CryptoSlate",
        "region": "en",
        "domain": "cryptoslate.com",
        "path": null
      },
      "title": "DeVere Group predicts Bitcoin will reach $50k before month end",
      "published_at": "2022-03-02T19:00:50Z",
      "slug": "DeVere-Group-predicts-Bitcoin-will-reach-50k-before-month-end",
      "currencies": [
        {
          "code": "BTC",
          "title": "Bitcoin",
          "slug": "bitcoin",
          "url": "https:\/\/cryptopanic.com\/news\/bitcoin\/"
        }
      ],
      "id": 14453996,
      "url": "https:\/\/cryptopanic.com\/news\/14453996\/DeVere-Group-predicts-Bitcoin-will-reach-50k-before-month-end",
      "created_at": "2022-03-02T19:00:50Z"
    },
    {
      "kind": "media",
      "domain": "youtube.com",
      "votes": {
        "negative": 0,
        "positive": 2,
        "important": 1,
        "liked": 1,
        "disliked": 0,
        "lol": 0,
        "toxic": 0,
        "saved": 0,
        "comments": 1
      },
      "source": {
        "title": "Bitcoin Magazine",
        "region": "en",
        "domain": "youtube.com",
        "path": null
      },
      "title": "Russia-Ukraine War Causes Bitcoin To Rally",
      "published_at": "2022-03-02T19:00:12Z",
      "slug": "Russia-Ukraine-War-Causes-Bitcoin-To-Rally",
      "currencies": [
        {
          "code": "BTC",
          "title": "Bitcoin",
          "slug": "bitcoin",
          "url": "https:\/\/cryptopanic.com\/news\/bitcoin\/"
        }
      ],
      "id": 14453937,
      "url": "https:\/\/cryptopanic.com\/news\/14453937\/Russia-Ukraine-War-Causes-Bitcoin-To-Rally",
      "created_at": "2022-03-02T19:00:12Z"
    },
    {
      "kind": "media",
      "domain": "youtube.com",
      "source": {
        "title": "Bitcoin Magazine",
        "region": "en",
        "domain": "youtube.com",
        "path": null
      },
      "title": "Macro Deep Dive ft Dylan LeClair - FED 84",
      "published_at": "2022-03-02T19:00:08Z",
      "slug": "Macro-Deep-Dive-ft-Dylan-LeClair-FED-84",
      "id": 14453938,
      "url": "https:\/\/cryptopanic.com\/news\/14453938\/Macro-Deep-Dive-ft-Dylan-LeClair-FED-84",
      "created_at": "2022-03-02T19:00:08Z",
      "votes": {
        "negative": 0,
        "positive": 0,
        "important": 0,
        "liked": 0,
        "disliked": 0,
        "lol": 0,
        "toxic": 0,
        "saved": 0,
        "comments": 0
      }
    },
    {
      "kind": "news",
      "domain": "beincrypto.com",
      "source": {
        "title": "BeInCrypto",
        "region": "en",
        "domain": "beincrypto.com",
        "path": null
      },
      "title": "UK Advertising Authority Bans Floki Inu (FLOKI) Adverts",
      "published_at": "2022-03-02T19:00:00Z",
      "slug": "UK-Advertising-Authority-Bans-Floki-Inu-FLOKI-Adverts",
      "id": 14454022,
      "url": "https:\/\/cryptopanic.com\/news\/14454022\/UK-Advertising-Authority-Bans-Floki-Inu-FLOKI-Adverts",
      "created_at": "2022-03-02T19:00:00Z",
      "votes": {
        "negative": 0,
        "positive": 0,
        "important": 0,
        "liked": 0,
        "disliked": 0,
        "lol": 0,
        "toxic": 0,
        "saved": 0,
        "comments": 0
      }
    },
    {
      "kind": "news",
      "domain": "forbes.com",
      "source": {
        "title": "Forbes",
        "region": "en",
        "domain": "forbes.com",
        "path": null
      },
      "title": "Bitcoin Earns Its Stripes In The War In Ukraine",
      "published_at": "2022-03-02T18:55:34Z",
      "slug": "Bitcoin-Earns-Its-Stripes-In-The-War-In-Ukraine",
      "currencies": [
        {
          "code": "BTC",
          "title": "Bitcoin",
          "slug": "bitcoin",
          "url": "https:\/\/cryptopanic.com\/news\/bitcoin\/"
        }
      ],
      "id": 14453950,
      "url": "https:\/\/cryptopanic.com\/news\/14453950\/Bitcoin-Earns-Its-Stripes-In-The-War-In-Ukraine",
      "created_at": "2022-03-02T18:55:34Z",
      "votes": {
        "negative": 0,
        "positive": 0,
        "important": 0,
        "liked": 0,
        "disliked": 0,
        "lol": 0,
        "toxic": 0,
        "saved": 0,
        "comments": 0
      }
    },
    {
      "kind": "news",
      "domain": "coindesk.com",
      "votes": {
        "negative": 1,
        "positive": 0,
        "important": 0,
        "liked": 0,
        "disliked": 0,
        "lol": 0,
        "toxic": 0,
        "saved": 0,
        "comments": 0
      },
      "source": {
        "title": "CoinDesk",
        "region": "en",
        "domain": "coindesk.com",
        "path": null
      },
      "title": "Bitcoin Fades From Resistance; Support at $40K",
      "published_at": "2022-03-02T18:53:33Z",
      "slug": "Bitcoin-Fades-From-Resistance-Support-at-40K",
      "currencies": [
        {
          "code": "BTC",
          "title": "Bitcoin",
          "slug": "bitcoin",
          "url": "https:\/\/cryptopanic.com\/news\/bitcoin\/"
        }
      ],
      "id": 14453939,
      "url": "https:\/\/cryptopanic.com\/news\/14453939\/Bitcoin-Fades-From-Resistance-Support-at-40K",
      "created_at": "2022-03-02T18:53:33Z"
    }
  ]
}